{
	"page":1,
	"per_page":3,
	"total":12,
	"total_pages":4,
	"data": [
		{
			"id": 1,
			"name": "akila",
			"year": 2000,
			"pantone_value": "15-4020"
		},
		{
			"id": 2,
			"name": "prasanth",
			"year": 2001,
			"pantone_value": "17-2031"
		},
		{
			"id": 3,
			"name": "santhiya",
			"year": 2002,
			"pantone_value": "19-1664"
		}
	]
}